<?xml version="1.0" encoding="utf-8"?>
<!-- Generator: Adobe Illustrator 22.0.1, SVG Export Plug-In . SVG Version: 6.00 Build 0)  -->
<svg version="1.1" id="Layer_1" xmlns="http://www.w3.org/2000/svg" xmlns:xlink="http://www.w3.org/1999/xlink" x="0px" y="0px"
	 viewBox="0 0 538.4 519.6" style="enable-background:new 0 0 538.4 519.6;" xml:space="preserve">
<style type="text/css">
	.st0{fill:#838383;}
	.st1{fill:#444546;}
</style>
<g>
	<g>
		<polygon class="st0" points="286.5,1 286.5,518.5 307.2,518.5 307.2,262.1 307.2,253.8 307.2,1 		"/>
		<path class="st1" d="M483.2,255.9c26.5-12.6,42.3-37.5,42.3-68.5v-0.8c0-21.6-6.9-39.7-20.5-53.8c-17.1-16.6-43.6-25.4-76.6-25.4
			h-72.3v140.1H22.3V133.2h124.8v-20H1.5v297.7h20.8V269.1l333.8-1.5v143.3h76c65.8,0,105-30.4,105-81.3v-0.8
			C537.1,295,516.5,267.9,483.2,255.9z M376.9,127.4H428c48.8,0,76.7,21.7,76.7,59.6v0.8c0,36.8-27.6,59.7-72.1,59.7h-53.1h-2.6
			V127.4z M376.9,267.5l2.6,0v0h58.5c47.6,0,78.4,24.2,78.4,61.8v0.8c0,39.3-29.9,60.9-84.3,60.9h-55.2V267.5z"/>
		<rect x="178.2" y="1" class="st0" width="20.8" height="517.5"/>
	</g>
</g>
</svg>
